matlab/signal_analysis/data/PWM60Hz_unfiltered_old.csv

X,CH1,Start,Increment,
Sequence,Volt,-6.000000e-04,1.000000e-06
0,5.12e+00,
1,4.80e+00,
2,5.12e+00,
3,4.80e+00,
4,5.12e+00,
5,4.80e+00,
6,5.12e+00,
7,4.80e+00,
8,5.12e+00,
9,4.80e+00,
10,4.80e+00,
11,5.12e+00,
12,5.12e+00,
13,4.80e+00,
14,5.12e+00,
15,4.80e+00,
16,5.12e+00,
17,4.80e+00,
18,5.12e+00,
19,4.80e+00,
20,5.12e+00,
21,4.80e+00,
22,5.12e+00,
23,4.80e+00,
24,5.12e+00,
25,4.80e+00,
26,5.12e+00,
27,4.80e+00,
28,5.12e+00,
29,-1.52e+00,
30,1.60e-01,
31,-8.00e-02,
32,1.60e-01,
33,0.00e+00,
34,1.60e-01,
35,0.00e+00,
36,1.60e-01,
37,0.00e+00,
38,1.60e-01,
39,-8.00e-02,
40,-8.00e-02,
41,6.32e+00,
42,5.12e+00,
43,4.80e+00,
44,4.80e+00,
45,5.12e+00,
46,5.12e+00,
47,4.80e+00,
48,5.12e+00,
49,4.80e+00,
50,5.12e+00,
51,4.72e+00,
52,4.80e+00,
53,5.12e+00,
54,5.12e+00,
55,4.80e+00,
56,5.12e+00,
57,4.80e+00,
58,4.80e+00,
59,5.12e+00,
60,5.12e+00,
61,4.80e+00,
62,5.12e+00,
63,4.80e+00,
64,5.12e+00,
65,4.80e+00,
66,5.12e+00,
67,4.80e+00,
68,5.12e+00,
69,4.80e+00,
70,5.12e+00,
71,4.80e+00,
72,5.12e+00,
73,4.80e+00,
74,5.12e+00,
75,4.80e+00,
76,5.12e+00,
77,4.80e+00,
78,4.80e+00,
79,5.12e+00,
80,5.12e+00,
81,4.80e+00,
82,5.12e+00,
83,4.80e+00,
84,5.12e+00,
85,4.80e+00,
86,4.80e+00,
87,5.12e+00,
88,4.80e+00,
89,5.12e+00,
90,5.12e+00,
91,4.80e+00,
92,5.12e+00,
93,-1.52e+00,
94,1.60e-01,
95,0.00e+00,
96,0.00e+00,
97,1.60e-01,
98,1.60e-01,
99,0.00e+00,
100,1.60e-01,
101,8.00e-02,
102,1.60e-01,
103,-8.00e-02,
104,0.00e+00,
105,6.32e+00,
106,4.80e+00,
107,5.12e+00,
108,5.12e+00,
109,4.80e+00,
110,5.12e+00,
111,4.72e+00,
112,5.12e+00,
113,4.80e+00,
114,4.80e+00,
115,5.12e+00,
116,5.12e+00,
117,4.80e+00,
118,4.80e+00,
119,5.12e+00,
120,5.12e+00,
121,4.80e+00,
122,5.12e+00,
123,4.80e+00,
124,5.12e+00,
125,4.80e+00,
126,5.12e+00,
127,4.80e+00,
128,5.12e+00,
129,4.80e+00,
130,5.12e+00,
131,4.80e+00,
132,5.12e+00,
133,4.80e+00,
134,5.12e+00,
135,4.80e+00,
136,5.12e+00,
137,4.80e+00,
138,5.12e+00,
139,4.80e+00,
140,4.80e+00,
141,5.12e+00,
142,5.12e+00,
143,4.80e+00,
144,5.12e+00,
145,4.80e+00,
146,5.12e+00,
147,4.80e+00,
148,5.12e+00,
149,4.80e+00,
150,4.80e+00,
151,5.12e+00,
152,4.80e+00,
153,5.12e+00,
154,4.80e+00,
155,5.12e+00,
156,5.12e+00,
157,-1.52e+00,
158,1.60e-01,
159,0.00e+00,
160,1.60e-01,
161,-8.00e-02,
162,1.60e-01,
163,0.00e+00,
164,1.60e-01,
165,-8.00e-02,
166,1.60e-01,
167,0.00e+00,
168,0.00e+00,
169,6.40e+00,
170,5.12e+00,
171,4.80e+00,
172,4.80e+00,
173,5.12e+00,
174,5.12e+00,
175,4.80e+00,
176,4.80e+00,
177,5.12e+00,
178,5.12e+00,
179,4.72e+00,
180,5.12e+00,
181,4.80e+00,
182,4.80e+00,
183,5.12e+00,
184,5.12e+00,
185,4.80e+00,
186,5.12e+00,
187,4.80e+00,
188,5.12e+00,
189,4.80e+00,
190,5.12e+00,
191,4.80e+00,
192,5.12e+00,
193,4.80e+00,
194,4.80e+00,
195,5.12e+00,
196,5.12e+00,
197,4.80e+00,
198,5.12e+00,
199,4.80e+00,
200,5.12e+00,
201,4.80e+00,
202,5.12e+00,
203,4.80e+00,
204,5.12e+00,
205,4.80e+00,
206,5.12e+00,
207,4.80e+00,
208,5.12e+00,
209,4.80e+00,
210,5.12e+00,
211,4.80e+00,
212,5.12e+00,
213,4.80e+00,
214,5.12e+00,
215,4.80e+00,
216,4.80e+00,
217,5.12e+00,
218,5.12e+00,
219,-1.52e+00,
220,-8.00e-02,
221,1.60e-01,
222,-8.00e-02,
223,1.60e-01,
224,1.60e-01,
225,0.00e+00,
226,1.60e-01,
227,0.00e+00,
228,1.60e-01,
229,0.00e+00,
230,1.60e-01,
231,-8.00e-02,
232,-8.00e-02,
233,6.24e+00,
234,5.12e+00,
235,4.80e+00,
236,5.12e+00,
237,4.80e+00,
238,5.12e+00,
239,4.72e+00,
240,5.12e+00,
241,4.80e+00,
242,5.12e+00,
243,4.80e+00,
244,5.12e+00,
245,4.80e+00,
246,5.12e+00,
247,4.80e+00,
248,5.12e+00,
249,4.80e+00,
250,5.12e+00,
251,4.80e+00,
252,5.12e+00,
253,4.80e+00,
254,5.12e+00,
255,4.80e+00,
256,5.12e+00,
257,4.80e+00,
258,5.12e+00,
259,4.80e+00,
260,5.12e+00,
261,4.80e+00,
262,5.12e+00,
263,4.80e+00,
264,5.12e+00,
265,4.80e+00,
266,5.12e+00,
267,4.80e+00,
268,5.12e+00,
269,4.80e+00,
270,5.12e+00,
271,4.80e+00,
272,5.12e+00,
273,4.80e+00,
274,5.12e+00,
275,4.80e+00,
276,5.12e+00,
277,4.80e+00,
278,5.12e+00,
279,4.80e+00,
280,5.12e+00,
281,4.80e+00,
282,5.12e+00,
283,-3.20e-01,
284,-8.00e-02,
285,1.60e-01,
286,1.60e-01,
287,0.00e+00,
288,1.60e-01,
289,0.00e+00,
290,1.60e-01,
291,0.00e+00,
292,1.60e-01,
293,0.00e+00,
294,1.60e-01,
295,-8.00e-02,
296,-8.00e-02,
297,6.32e+00,
298,4.80e+00,
299,5.12e+00,
300,4.72e+00,
301,5.12e+00,
302,5.12e+00,
303,4.80e+00,
304,4.80e+00,
305,5.12e+00,
306,5.12e+00,
307,4.72e+00,
308,5.12e+00,
309,4.80e+00,
310,4.80e+00,
311,5.12e+00,
312,5.12e+00,
313,4.80e+00,
314,4.80e+00,
315,5.12e+00,
316,4.80e+00,
317,5.12e+00,
318,4.80e+00,
319,5.12e+00,
320,5.12e+00,
321,4.80e+00,
322,5.12e+00,
323,4.80e+00,
324,4.80e+00,
325,5.12e+00,
326,5.12e+00,
327,4.80e+00,
328,5.12e+00,
329,4.80e+00,
330,5.12e+00,
331,4.80e+00,
332,5.12e+00,
333,4.80e+00,
334,5.12e+00,
335,4.80e+00,
336,5.12e+00,
337,4.80e+00,
338,5.12e+00,
339,4.80e+00,
340,5.12e+00,
341,4.80e+00,
342,5.12e+00,
343,4.80e+00,
344,5.12e+00,
345,4.80e+00,
346,5.12e+00,
347,-1.52e+00,
348,1.60e-01,
349,-8.00e-02,
350,1.60e-01,
351,0.00e+00,
352,1.60e-01,
353,0.00e+00,
354,1.60e-01,
355,-8.00e-02,
356,1.60e-01,
357,-8.00e-02,
358,1.60e-01,
359,-8.00e-02,
360,0.00e+00,
361,6.32e+00,
362,5.12e+00,
363,4.80e+00,
364,5.12e+00,
365,4.80e+00,
366,5.12e+00,
367,4.72e+00,
368,4.80e+00,
369,5.12e+00,
370,4.80e+00,
371,5.12e+00,
372,5.12e+00,
373,4.80e+00,
374,5.12e+00,
375,4.80e+00,
376,5.12e+00,
377,4.80e+00,
378,5.12e+00,
379,4.80e+00,
380,5.12e+00,
381,4.80e+00,
382,5.12e+00,
383,4.80e+00,
384,5.12e+00,
385,4.80e+00,
386,5.12e+00,
387,4.80e+00,
388,5.12e+00,
389,4.80e+00,
390,5.12e+00,
391,4.80e+00,
392,5.12e+00,
393,4.80e+00,
394,5.12e+00,
395,4.80e+00,
396,5.12e+00,
397,4.80e+00,
398,5.12e+00,
399,4.80e+00,
400,5.12e+00,
401,4.80e+00,
402,5.12e+00,
403,4.80e+00,
404,5.12e+00,
405,4.80e+00,
406,5.12e+00,
407,4.80e+00,
408,5.12e+00,
409,-1.60e+00,
410,-8.00e-02,
411,1.60e-01,
412,1.60e-01,
413,0.00e+00,
414,1.60e-01,
415,-8.00e-02,
416,-8.00e-02,
417,1.60e-01,
418,-8.00e-02,
419,1.60e-01,
420,1.60e-01,
421,-8.00e-02,
422,1.60e-01,
423,-8.00e-02,
424,0.00e+00,
425,6.32e+00,
426,5.12e+00,
427,4.80e+00,
428,5.12e+00,
429,4.80e+00,
430,5.12e+00,
431,4.80e+00,
432,5.12e+00,
433,4.72e+00,
434,5.12e+00,
435,4.72e+00,
436,5.12e+00,
437,4.72e+00,
438,4.80e+00,
439,5.12e+00,
440,5.12e+00,
441,4.80e+00,
442,4.80e+00,
443,5.12e+00,
444,5.12e+00,
445,4.80e+00,
446,4.80e+00,
447,5.12e+00,
448,4.80e+00,
449,5.12e+00,
450,5.12e+00,
451,4.80e+00,
452,4.80e+00,
453,5.12e+00,
454,5.12e+00,
455,4.80e+00,
456,5.12e+00,
457,4.80e+00,
458,5.12e+00,
459,4.80e+00,
460,4.80e+00,
461,5.12e+00,
462,4.80e+00,
463,5.12e+00,
464,5.12e+00,
465,4.80e+00,
466,5.12e+00,
467,4.80e+00,
468,4.80e+00,
469,5.12e+00,
470,5.12e+00,
471,4.80e+00,
472,5.12e+00,
473,-1.52e+00,
474,-8.00e-02,
475,1.60e-01,
476,1.60e-01,
477,-8.00e-02,
478,1.60e-01,
479,0.00e+00,
480,1.60e-01,
481,-8.00e-02,
482,1.60e-01,
483,-8.00e-02,
484,1.60e-01,
485,0.00e+00,
486,1.60e-01,
487,-8.00e-02,
488,-8.00e-02,
489,6.24e+00,
490,4.80e+00,
491,5.12e+00,
492,5.12e+00,
493,4.72e+00,
494,5.12e+00,
495,4.80e+00,
496,5.12e+00,
497,4.72e+00,
498,4.80e+00,
499,5.12e+00,
500,5.12e+00,
501,4.80e+00,
502,5.12e+00,
503,4.80e+00,
504,4.80e+00,
505,5.12e+00,
506,5.12e+00,
507,4.80e+00,
508,4.80e+00,
509,5.12e+00,
510,4.80e+00,
511,5.12e+00,
512,5.12e+00,
513,4.80e+00,
514,4.80e+00,
515,5.12e+00,
516,5.12e+00,
517,4.80e+00,
518,5.12e+00,
519,4.80e+00,
520,5.12e+00,
521,4.80e+00,
522,5.12e+00,
523,4.80e+00,
524,5.12e+00,
525,4.80e+00,
526,5.12e+00,
527,4.80e+00,
528,5.12e+00,
529,4.80e+00,
530,5.12e+00,
531,4.80e+00,
532,5.12e+00,
533,4.80e+00,
534,4.80e+00,
535,5.12e+00,
536,5.12e+00,
537,-1.60e+00,
538,1.60e-01,
539,-8.00e-02,
540,1.60e-01,
541,-8.00e-02,
542,1.60e-01,
543,-8.00e-02,
544,1.60e-01,
545,-8.00e-02,
546,1.60e-01,
547,0.00e+00,
548,1.60e-01,
549,-8.00e-02,
550,1.60e-01,
551,-8.00e-02,
552,-8.00e-02,
553,6.40e+00,
554,5.12e+00,
555,4.80e+00,
556,5.12e+00,
557,4.72e+00,
558,5.12e+00,
559,4.72e+00,
560,4.80e+00,
561,5.12e+00,
562,5.12e+00,
563,4.72e+00,
564,4.80e+00,
565,5.12e+00,
566,5.12e+00,
567,4.80e+00,
568,5.12e+00,
569,4.80e+00,
570,5.12e+00,
571,4.80e+00,
572,5.12e+00,
573,4.80e+00,
574,5.12e+00,
575,4.80e+00,
576,5.12e+00,
577,4.80e+00,
578,5.12e+00,
579,4.80e+00,
580,5.12e+00,
581,4.80e+00,
582,5.12e+00,
583,4.80e+00,
584,5.12e+00,
585,4.80e+00,
586,5.12e+00,
587,4.80e+00,
588,5.12e+00,
589,4.80e+00,
590,4.80e+00,
591,5.12e+00,
592,5.12e+00,
593,4.80e+00,
594,5.12e+00,
595,4.80e+00,
596,5.12e+00,
597,4.80e+00,
598,5.12e+00,
599,4.80e+00,
600,-1.52e+00,
601,3.20e-01,
602,1.60e-01,
603,-8.00e-02,
604,1.60e-01,
605,0.00e+00,
606,1.60e-01,
607,-8.00e-02,
608,0.00e+00,
609,1.60e-01,
610,1.60e-01,
611,-8.00e-02,
612,1.60e-01,
613,-8.00e-02,
614,1.60e-01,
615,-8.00e-02,
616,-8.00e-02,
617,6.32e+00,
618,5.12e+00,
619,4.72e+00,
620,5.12e+00,
621,4.72e+00,
622,5.12e+00,
623,4.72e+00,
624,5.12e+00,
625,4.80e+00,
626,5.12e+00,
627,4.72e+00,
628,5.12e+00,
629,4.80e+00,
630,5.12e+00,
631,4.80e+00,
632,5.12e+00,
633,4.80e+00,
634,4.80e+00,
635,5.12e+00,
636,4.80e+00,
637,5.12e+00,
638,5.12e+00,
639,4.80e+00,
640,5.12e+00,
641,4.80e+00,
642,5.12e+00,
643,4.80e+00,
644,5.12e+00,
645,4.80e+00,
646,5.12e+00,
647,4.80e+00,
648,4.80e+00,
649,5.12e+00,
650,5.12e+00,
651,4.80e+00,
652,5.12e+00,
653,4.80e+00,
654,5.12e+00,
655,4.80e+00,
656,5.12e+00,
657,4.80e+00,
658,5.12e+00,
659,4.80e+00,
660,5.12e+00,
661,4.80e+00,
662,5.12e+00,
663,-1.44e+00,
664,-8.00e-02,
665,1.60e-01,
666,1.60e-01,
667,-8.00e-02,
668,1.60e-01,
669,-8.00e-02,
670,1.60e-01,
671,-8.00e-02,
672,1.60e-01,
673,-8.00e-02,
674,1.60e-01,
675,-8.00e-02,
676,1.60e-01,
677,-8.00e-02,
678,1.60e-01,
679,-8.00e-02,
680,-8.00e-02,
681,6.40e+00,
682,4.80e+00,
683,5.12e+00,
684,5.12e+00,
685,4.72e+00,
686,4.80e+00,
687,5.12e+00,
688,5.12e+00,
689,4.72e+00,
690,5.12e+00,
691,4.80e+00,
692,5.12e+00,
693,4.72e+00,
694,5.12e+00,
695,4.80e+00,
696,5.12e+00,
697,4.80e+00,
698,5.12e+00,
699,4.80e+00,
700,5.12e+00,
701,4.80e+00,
702,4.80e+00,
703,5.12e+00,
704,4.80e+00,
705,5.12e+00,
706,5.12e+00,
707,4.80e+00,
708,4.80e+00,
709,5.12e+00,
710,4.80e+00,
711,5.12e+00,
712,4.80e+00,
713,5.12e+00,
714,4.80e+00,
715,5.12e+00,
716,4.80e+00,
717,5.12e+00,
718,4.80e+00,
719,5.12e+00,
720,5.12e+00,
721,4.80e+00,
722,4.80e+00,
723,5.12e+00,
724,5.12e+00,
725,4.80e+00,
726,5.12e+00,
727,-1.52e+00,
728,-8.00e-02,
729,1.60e-01,
730,1.60e-01,
731,-8.00e-02,
732,1.60e-01,
733,-8.00e-02,
734,1.60e-01,
735,-8.00e-02,
736,1.60e-01,
737,-8.00e-02,
738,1.60e-01,
739,-8.00e-02,
740,1.60e-01,
741,-8.00e-02,
742,1.60e-01,
743,-8.00e-02,
744,-8.00e-02,
745,6.24e+00,
746,5.12e+00,
747,4.80e+00,
748,5.12e+00,
749,4.72e+00,
750,5.12e+00,
751,4.80e+00,
752,5.12e+00,
753,4.72e+00,
754,5.12e+00,
755,4.80e+00,
756,5.12e+00,
757,4.80e+00,
758,5.12e+00,
759,4.80e+00,
760,5.12e+00,
761,4.80e+00,
762,5.12e+00,
763,4.80e+00,
764,4.80e+00,
765,5.12e+00,
766,5.12e+00,
767,4.80e+00,
768,5.12e+00,
769,4.80e+00,
770,5.12e+00,
771,4.80e+00,
772,5.12e+00,
773,4.80e+00,
774,4.80e+00,
775,5.12e+00,
776,5.12e+00,
777,4.80e+00,
778,5.12e+00,
779,4.80e+00,
780,5.12e+00,
781,4.80e+00,
782,5.12e+00,
783,4.80e+00,
784,5.12e+00,
785,4.80e+00,
786,5.12e+00,
787,4.80e+00,
788,5.12e+00,
789,4.80e+00,
790,5.12e+00,
791,-1.60e+00,
792,-8.00e-02,
793,1.60e-01,
794,1.60e-01,
795,-8.00e-02,
796,1.60e-01,
797,-8.00e-02,
798,1.60e-01,
799,-8.00e-02,
800,1.60e-01,
801,-8.00e-02,
802,0.00e+00,
803,1.60e-01,
804,1.60e-01,
805,-8.00e-02,
806,1.60e-01,
807,-8.00e-02,
808,-8.00e-02,
809,6.40e+00,
810,5.12e+00,
811,4.72e+00,
812,5.12e+00,
813,4.72e+00,
814,5.12e+00,
815,4.80e+00,
816,4.72e+00,
817,5.12e+00,
818,5.12e+00,
819,4.72e+00,
820,5.12e+00,
821,4.80e+00,
822,5.12e+00,
823,4.80e+00,
824,5.12e+00,
825,4.80e+00,
826,4.80e+00,
827,5.12e+00,
828,5.12e+00,
829,4.80e+00,
830,4.80e+00,
831,5.12e+00,
832,5.12e+00,
833,4.80e+00,
834,5.12e+00,
835,4.80e+00,
836,5.12e+00,
837,4.80e+00,
838,4.80e+00,
839,5.12e+00,
840,5.12e+00,
841,4.80e+00,
842,5.12e+00,
843,4.80e+00,
844,5.12e+00,
845,4.80e+00,
846,5.12e+00,
847,4.80e+00,
848,5.12e+00,
849,4.80e+00,
850,4.80e+00,
851,5.12e+00,
852,5.12e+00,
853,-1.60e+00,
854,1.60e-01,
855,-8.00e-02,
856,-8.00e-02,
857,1.60e-01,
858,1.60e-01,
859,-8.00e-02,
860,1.60e-01,
861,-8.00e-02,
862,-8.00e-02,
863,1.60e-01,
864,1.60e-01,
865,-8.00e-02,
866,-8.00e-02,
867,1.60e-01,
868,1.60e-01,
869,-8.00e-02,
870,-8.00e-02,
871,1.60e-01,
872,-8.00e-02,
873,6.32e+00,
874,5.12e+00,
875,4.80e+00,
876,5.12e+00,
877,4.72e+00,
878,4.80e+00,
879,5.12e+00,
880,5.12e+00,
881,4.72e+00,
882,5.12e+00,
883,4.72e+00,
884,4.80e+00,
885,5.12e+00,
886,4.80e+00,
887,5.12e+00,
888,5.12e+00,
889,4.80e+00,
890,5.12e+00,
891,4.80e+00,
892,5.12e+00,
893,4.80e+00,
894,5.12e+00,
895,4.80e+00,
896,4.80e+00,
897,5.12e+00,
898,5.12e+00,
899,4.80e+00,
900,4.80e+00,
901,5.12e+00,
902,4.80e+00,
903,5.12e+00,
904,5.12e+00,
905,4.80e+00,
906,5.12e+00,
907,4.80e+00,
908,4.80e+00,
909,5.12e+00,
910,5.12e+00,
911,4.80e+00,
912,5.12e+00,
913,4.80e+00,
914,4.80e+00,
915,5.12e+00,
916,5.12e+00,
917,-1.44e+00,
918,-8.00e-02,
919,1.60e-01,
920,1.60e-01,
921,-8.00e-02,
922,-8.00e-02,
923,1.60e-01,
924,1.60e-01,
925,-8.00e-02,
926,1.60e-01,
927,-8.00e-02,
928,-8.00e-02,
929,1.60e-01,
930,1.60e-01,
931,-8.00e-02,
932,1.60e-01,
933,-8.00e-02,
934,-8.00e-02,
935,1.60e-01,
936,-8.00e-02,
937,6.24e+00,
938,5.12e+00,
939,4.72e+00,
940,5.12e+00,
941,4.72e+00,
942,5.12e+00,
943,4.72e+00,
944,5.12e+00,
945,4.72e+00,
946,5.12e+00,
947,4.72e+00,
948,4.80e+00,
949,5.12e+00,
950,5.12e+00,
951,4.80e+00,
952,5.12e+00,
953,4.80e+00,
954,5.12e+00,
955,4.80e+00,
956,5.12e+00,
957,4.80e+00,
958,5.12e+00,
959,4.80e+00,
960,5.12e+00,
961,4.80e+00,
962,5.12e+00,
963,4.80e+00,
964,5.12e+00,
965,4.80e+00,
966,5.12e+00,
967,4.80e+00,
968,5.12e+00,
969,4.80e+00,
970,5.12e+00,
971,4.80e+00,
972,5.12e+00,
973,4.80e+00,
974,5.12e+00,
975,4.80e+00,
976,5.12e+00,
977,4.80e+00,
978,5.12e+00,
979,4.80e+00,
980,5.12e+00,
981,-1.60e+00,
982,1.60e-01,
983,-8.00e-02,
984,1.60e-01,
985,-8.00e-02,
986,1.60e-01,
987,-8.00e-02,
988,1.60e-01,
989,-8.00e-02,
990,1.60e-01,
991,-8.00e-02,
992,-8.00e-02,
993,1.60e-01,
994,-8.00e-02,
995,1.60e-01,
996,1.60e-01,
997,-8.00e-02,
998,1.60e-01,
999,-8.00e-02,
1000,-8.00e-02,
1001,6.24e+00,
1002,5.12e+00,
1003,4.72e+00,
1004,5.12e+00,
1005,4.72e+00,
1006,5.12e+00,
1007,4.80e+00,
1008,5.12e+00,
1009,4.72e+00,
1010,5.12e+00,
1011,4.72e+00,
1012,5.12e+00,
1013,4.80e+00,
1014,5.12e+00,
1015,4.80e+00,
1016,4.80e+00,
1017,5.12e+00,
1018,5.12e+00,
1019,4.80e+00,
1020,5.12e+00,
1021,4.80e+00,
1022,5.12e+00,
1023,4.80e+00,
1024,5.12e+00,
1025,4.80e+00,
1026,5.12e+00,
1027,4.80e+00,
1028,4.80e+00,
1029,5.12e+00,
1030,4.80e+00,
1031,5.12e+00,
1032,5.12e+00,
1033,4.80e+00,
1034,5.12e+00,
1035,4.80e+00,
1036,5.12e+00,
1037,4.80e+00,
1038,4.80e+00,
1039,5.12e+00,
1040,4.80e+00,
1041,5.12e+00,
1042,5.12e+00,
1043,-1.44e+00,
1044,-8.00e-02,
1045,1.60e-01,
1046,1.60e-01,
1047,-8.00e-02,
1048,1.60e-01,
1049,-8.00e-02,
1050,1.60e-01,
1051,-8.00e-02,
1052,1.60e-01,
1053,-8.00e-02,
1054,1.60e-01,
1055,-8.00e-02,
1056,1.60e-01,
1057,-8.00e-02,
1058,1.60e-01,
1059,-8.00e-02,
1060,1.60e-01,
1061,-8.00e-02,
1062,-8.00e-02,
1063,1.60e-01,
1064,-8.00e-02,
1065,6.24e+00,
1066,4.80e+00,
1067,5.12e+00,
1068,5.12e+00,
1069,4.72e+00,
1070,5.12e+00,
1071,4.80e+00,
1072,4.72e+00,
1073,5.12e+00,
1074,5.12e+00,
1075,4.72e+00,
1076,4.80e+00,
1077,5.12e+00,
1078,5.12e+00,
1079,4.80e+00,
1080,5.12e+00,
1081,4.80e+00,
1082,5.12e+00,
1083,4.80e+00,
1084,4.80e+00,
1085,5.12e+00,
1086,5.12e+00,
1087,4.80e+00,
1088,5.12e+00,
1089,4.80e+00,
1090,5.12e+00,
1091,4.80e+00,
1092,4.80e+00,
1093,5.12e+00,
1094,5.12e+00,
1095,4.80e+00,
1096,4.80e+00,
1097,5.12e+00,
1098,5.12e+00,
1099,4.80e+00,
1100,5.12e+00,
1101,4.80e+00,
1102,5.12e+00,
1103,4.80e+00,
1104,4.80e+00,
1105,5.12e+00,
1106,5.12e+00,
1107,-1.60e+00,
1108,-8.00e-02,
1109,1.60e-01,
1110,-8.00e-02,
1111,1.60e-01,
1112,-8.00e-02,
1113,1.60e-01,
1114,1.60e-01,
1115,-8.00e-02,
1116,-8.00e-02,
1117,1.60e-01,
1118,1.60e-01,
1119,-8.00e-02,
1120,1.60e-01,
1121,-8.00e-02,
1122,-8.00e-02,
1123,1.60e-01,
1124,1.60e-01,
1125,-8.00e-02,
1126,1.60e-01,
1127,-8.00e-02,
1128,-8.00e-02,
1129,6.40e+00,
1130,5.12e+00,
1131,4.80e+00,
1132,5.12e+00,
1133,4.72e+00,
1134,5.12e+00,
1135,4.72e+00,
1136,5.12e+00,
1137,4.72e+00,
1138,5.12e+00,
1139,4.72e+00,
1140,5.12e+00,
1141,4.80e+00,
1142,5.12e+00,
1143,4.80e+00,
1144,5.12e+00,
1145,4.80e+00,
1146,5.12e+00,
1147,4.80e+00,
1148,5.12e+00,
1149,4.80e+00,
1150,4.80e+00,
1151,5.12e+00,
1152,5.12e+00,
1153,4.80e+00,
1154,5.12e+00,
1155,4.80e+00,
1156,5.12e+00,
1157,4.80e+00,
1158,5.12e+00,
1159,4.80e+00,
1160,5.12e+00,
1161,4.80e+00,
1162,5.12e+00,
1163,4.80e+00,
1164,5.12e+00,
1165,4.80e+00,
1166,5.12e+00,
1167,4.80e+00,
1168,5.12e+00,
1169,4.80e+00,
1170,5.12e+00,
1171,-1.52e+00,
1172,1.60e-01,
1173,-8.00e-02,
1174,1.60e-01,
1175,-8.00e-02,
1176,1.60e-01,
1177,-8.00e-02,
1178,1.60e-01,
1179,-8.00e-02,
1180,1.60e-01,
1181,-8.00e-02,
1182,1.60e-01,
1183,-8.00e-02,
1184,-8.00e-02,
1185,1.60e-01,
1186,-8.00e-02,
1187,1.60e-01,
1188,-8.00e-02,
1189,1.60e-01,
1190,1.60e-01,
1191,-8.00e-02,
1192,-8.00e-02,
1193,6.40e+00,
1194,5.12e+00,
1195,4.80e+00,
1196,5.12e+00,
1197,4.72e+00,
1198,5.12e+00,
1199,4.80e+00,
